<?xml version="1.0" standalone="no"?>
<!DOCTYPE svg PUBLIC "-//W3C//DTD SVG 1.1//EN" "http://www.w3.org/Graphics/SVG/1.1/DTD/svg11.dtd">
<svg xmlns="http://www.w3.org/2000/svg">
<metadata>Copyright (C) 2014 by original authors @ fontello.com</metadata>
<defs>
<font id="katana_icons" horiz-adv-x="1000" >
<font-face font-family="katana_icons" font-weight="400" font-stretch="normal" units-per-em="1000" ascent="850" descent="-150" />
<missing-glyph horiz-adv-x="1000" />
<glyph glyph-name="search-5" unicode="&#xe800;" d="m11 375q-23 87 0 173t87 150q48 48 110 74t128 25q65 0 127-25t110-74q52-52 77-119t21-137-36-132q28-8 49-29l174-173q35-36 35-85t-35-85q-35-35-85-35t-85 35l-173 174q-22 20-30 49-70-35-149-35-66 0-128 25t-110 73q-64 64-87 151z m101 86q0-93 65-158 66-65 159-65 92 0 157 65t66 158-66 158q-66 66-157 66-92 0-159-66-65-65-65-158z" horiz-adv-x="892.6" />
<glyph glyph-name="arrow-curved" unicode="&#xe801;" d="m799 295l0-56 112 0-223-223-224 223 112 0 0 56q0 116-81 197t-197 82-198-82-82-197q0 162 115 276t276 114 276-114 114-276z" horiz-adv-x="928" />
<glyph glyph-name="spin4" unicode="&#xe802;" d="m498 850c-114 0-228-39-320-116l0 0c173 140 428 130 588-31 134-134 164-332 89-495-10-29-5-50 12-68 21-20 61-23 84 0 3 3 12 15 15 24 71 180 33 393-112 539-99 98-228 147-356 147z m-409-274c-14 0-29-5-39-16-3-3-13-15-15-24-71-180-34-393 112-539 185-185 479-195 676-31l0 0c-173-140-428-130-589 31-134 134-163 333-89 495 11 29 6 50-12 68-11 11-27 17-44 16z" horiz-adv-x="1001" />
<glyph glyph-name="down-open-1" unicode="&#xe803;" d="m564 422l-234-224q-18-18-40-18t-40 18l-234 224q-16 16-16 41t16 41q38 38 78 0l196-188 196 188q40 38 78 0 16-16 16-41t-16-41z" horiz-adv-x="580" />
<glyph glyph-name="help-circled-3" unicode="&#xe804;" d="m0 350q0 207 147 354t353 146 354-146 146-354-146-354-354-146-353 146-147 354z m316 264q-3-49 12-57l57 0q21 47 70 45 33 0 58-32t10-66q-9-23-29-55t-31-56q-20-41-21-90t21-97l70-2q-8 41 9 79t58 89 45 56q25 39 32 62t7 59q0 71-49 121-53 55-145 55-47 0-109-37t-65-74z m94-553q0-35 25-61t59-25 61 25 25 61-25 60-61 24-59-24-25-60z" horiz-adv-x="1000" />
<glyph glyph-name="right-open-3" unicode="&#xe805;" d="m0 0q0 25 18 43l305 304-305 304q-18 18-18 44t18 43 44 18 43-18l390-391-390-391q-19-18-43-18t-44 18q-18 18-18 44z" horiz-adv-x="495.1" />
<glyph glyph-name="popup-3" unicode="&#xe806;" d="m700 750q42 0 71-29t29-71l0-400q0-40-29-70t-71-30l-400 0q-40 0-70 30t-30 70l0 402q0 40 29 69t71 29l400 0z m0-500l0 400-400 0 0-400 400 0z m-600 100l0-300 300 0 0-100-300 0q-40 0-70 30t-30 70l0 300 100 0z" horiz-adv-x="800" />
<glyph glyph-name="back-in-time" unicode="&#xe807;" d="m532 760q170 0 289-120t119-290-119-290-289-120q-138 0-252 88l70 76q82-60 182-60 126 0 216 90t90 216q0 128-90 218t-216 90q-124 0-213-86t-93-210l142 0-184-206-184 206 124 0q4 166 123 282t285 116z m-36-190l70 0 0-204 130-130-50-50-150 150 0 234z" horiz-adv-x="940" />
<glyph glyph-name="blind" unicode="&#xe808;" d="m5-94q-12 24 5 51l129 166 51 184 0 150-27-37-10-107q-4-26-25-34t-37 5-14 37l13 115q0 9 6 17l104 141q19 31 56 35t65-21l113-143 111-23q22-4 30-30t-22-37l356-488q5-10-4-15t-16 3l-381 502-103 20q-14 4-22 13l-43 55 0-158 112-127q5-6 7-18l55-244q4-27-17-44t-48-10-34 37l-49 232-92 104-41-145q-6-14-8-18l-135-173q-21-20-47-19t-38 24z m179 835q0 40 28 69t69 28 68-28 28-69-28-68-68-28-69 28-28 68z" horiz-adv-x="911" />
<glyph glyph-name="sort" unicode="&#xe809;" d="m0 243q0 14 11 25t25 11h500q14 0 25-11t10-25-10-25l-250-250q-11-11-25-11t-25 11l-250 250q-11 10-11 25z m0 214q0 15 11 25l250 250q10 11 25 11t25-11l250-250q10-10 10-25t-10-25-25-11h-500q-15 0-25 11t-11 25z" horiz-adv-x="571.4" />
<glyph glyph-name="color-adjust" unicode="&#xe80a;" d="m0 350q0 95 37 182t100 149 150 100 182 37 182-37 149-100 100-149 37-182-37-182-100-150-149-100-182-37-182 37-150 100-100 150-37 182z m397-226q0-46 32-79t79-32q3 0 11-1 81 12 148 60t105 120 39 158q0 90-44 167t-118 123-164 51q60-95 60-209 0-81-31-154t-85-127q-32-33-32-77z" horiz-adv-x="937.5" />
<glyph glyph-name="ajust" unicode="&#xe80b;" d="m0 350q0 117 58 215t155 156 216 58 215-58 156-156 57-215-57-215-156-156-215-58-216 58-155 156-58 215z m125 0q0-83 41-152t110-111 153-41v608q-83 0-153-41t-110-111-41-152z" horiz-adv-x="857.1" />
<glyph glyph-name="user-1" unicode="&#xe80c;" d="m736 128q204-72 204-122l0-106-940 0 0 106q0 50 204 122 94 34 128 69t34 95q0 22-22 49t-32 73q-2 12-9 18t-14 8-14 17-9 43q0 16 5 26t9 12l4 4q-8 50-12 88-4 54 41 112t157 58 158-58 40-112l-12-88q18-8 18-42-2-28-9-43t-14-17-14-8-9-18q-8-48-31-74t-23-48q0-60 35-95t127-69z" horiz-adv-x="940" />
<glyph glyph-name="user-3" unicode="&#xe80d;" d="m353 351q139 0 237-99t98-236q0-47-33-80t-79-33l-446 0q-46 0-79 33t-33 80q0 138 98 236t237 99z m-167 279q0 167 167 167 168 0 168-167 0-168-168-168-167 0-167 168z" horiz-adv-x="705" />
<glyph glyph-name="doc-text" unicode="&#xe80e;" d="m212 308l0 90 280 0 0-90-280 0z m388 492q42 0 71-29t29-71l0-700q0-40-29-70t-71-30l-500 0q-40 0-70 30t-30 70l0 700q0 42 30 71t70 29l500 0z m0-800l0 700-500 0 0-700 500 0z m-110 592l0-88-280 0 0 88 280 0z m0-392l0-88-280 0 0 88 280 0z" horiz-adv-x="700" />
<glyph glyph-name="ok" unicode="&#xe80f;" d="m68 332q0 22 15 38l76 76q16 16 38 16t38-16l164-165 366 367q16 16 38 16t38-16l76-76q15-16 15-38t-15-38l-404-404-76-76q-16-15-38-15t-38 15l-76 76-202 202q-15 16-15 38z" horiz-adv-x="1000" />
<glyph glyph-name="down-dir-2" unicode="&#xe810;" d="m540 587l-269-473-271 473 540 0z" horiz-adv-x="540" />
<glyph glyph-name="up-dir-2" unicode="&#xe811;" d="m0 114l269 473 271-473-540 0z" horiz-adv-x="540" />
<glyph glyph-name="warning-empty" unicode="&#xe812;" d="m514 701q-49 0-81-55l-308-513q-32-55-11-95t87-40l625 0q65 0 87 40t-12 95l-307 513q-33 55-80 55z m0 105q106 0 169-107l308-513q63-105 12-199-52-93-177-93l-625 0q-123 0-177 93-53 92 11 199l309 513q62 107 170 107z m-69-652q0 69 69 69 67 0 67-69 0-67-67-67-69 0-69 67z m146 313q0-14-6-29l-71-179q-44 108-73 179-6 15-6 29 0 32 23 55t56 24 55-24 22-55z" horiz-adv-x="1026" />
<glyph glyph-name="youtube-play" unicode="&#xe814;" d="m0 350q0 54 1 84t4 76 13 82q9 41 38 69t70 32q123 14 374 14t374-14q40-4 70-32t39-69q7-36 12-82t4-76 1-84-1-84-4-76-13-82q-9-41-38-69t-70-32q-123-14-374-14t-374 14q-40 4-70 32t-39 69q-7 36-12 82t-4 76-1 84z m357-179q0-21 19-31 9-4 17-4 11 0 19 5l286 179q16 9 16 30t-16 30l-286 179q-17 11-36 1-19-10-19-31v-358z" horiz-adv-x="1000" />
<glyph glyph-name="cancel-circled-2" unicode="&#xe818;" d="m416 767q173 0 295-122t123-295-123-294-295-122-294 122-122 294 122 295 294 122z m194-537l-120 120 120 120q15 15 15 37t-15 36-37 15-37-15l-120-119-118 119q-15 15-37 15t-37-15-15-36 15-37l119-120-119-120q-15-15-15-36t15-36q16-16 36-16 21 0 38 16l118 119 120-119q17-16 37-16 21 0 37 16 15 15 15 36t-15 36z" horiz-adv-x="834" />
</font>
</defs>
</svg>